{
  "connection": "default",
  "collectionName": "recipes",
  "info": {
    "name": "recipe",
    "description": ""
  },
  "options": {
    "increments": true,
    "timestamps": true,
    "comment": ""
  },
  "attributes": {
    "name": {
      "default": "",
      "type": "string",
      "required": true
    },
    "description": {
      "default": "",
      "minLength": 3,
      "type": "string"
    },
    "user": {
      "model": "user",
      "via": "recipe",
      "plugin": "users-permissions"
    },
    "ingredients": {
      "collection": "ingredient",
      "via": "recipes",
      "dominant": true
    },
    "mealplan": {
      "model": "mealplan",
      "via": "recipes"
    }
  }
}