{
  "routes": [
    {
      "method": "GET",
      "path": "/mealplans",
      "handler": "Mealplan.find",
      "config": {
        "policies": []
      }
    },
    {
      "method": "GET",
      "path": "/mealplans/count",
      "handler": "Mealplan.count",
      "config": {
        "policies": []
      }
    },
    {
      "method": "GET",
      "path": "/mealplans/:id",
      "handler": "Mealplan.findOne",
      "config": {
        "policies": []
      }
    },
    {
      "method": "POST",
      "path": "/mealplans",
      "handler": "Mealplan.create",
      "config": {
        "policies": []
      }
    },
    {
      "method": "PUT",
      "path": "/mealplans/:id",
      "handler": "Mealplan.update",
      "config": {
        "policies": []
      }
    },
    {
      "method": "DELETE",
      "path": "/mealplans/:id",
      "handler": "Mealplan.destroy",
      "config": {
        "policies": []
      }
    },
    {
      "method": "POST",
      "path": "/mealplans/:id/relationships/:relation",
      "handler": "Mealplan.createRelation",
      "config": {
        "policies": []
      }
    },
    {
      "method": "PUT",
      "path": "/mealplans/:id/relationships/:relation",
      "handler": "Mealplan.updateRelation",
      "config": {
        "policies": []
      }
    },
    {
      "method": "DELETE",
      "path": "/mealplans/:id/relationships/:relation",
      "handler": "Mealplan.destroyRelation",
      "config": {
        "policies": []
      }
    }
  ]
}
